%YAML 1.1
%TAG !u! tag:unity3d.com,2011:
--- !u!1045 &1
EditorBuildSettings:
  m_ObjectHideFlags: 0
  serializedVersion: 2
  m_Scenes:
  - enabled: 0
    path: 
    guid: 00000000000000000000000000000000
  - enabled: 1
    path: Assets/Scenes/Menu/SplashScreen.unity
    guid: 2fb6b71d6a8cdef4c94b1492134af5e5
  - enabled: 1
    path: Assets/Scenes/Menu/MainMenu.unity
    guid: 7223923515e93814c807ed67224b8cf0
  - enabled: 1
    path: Assets/Scenes/Levels/level1.unity
    guid: 9e9822de3fd40504c9b03ee43bc6338f
  - enabled: 1
    path: Assets/Scenes/Levels/level2.unity
    guid: 67920307f6b83cf4ca2646ed8d8c84f2
  - enabled: 1
    path: Assets/Scenes/Levels/level3.unity
    guid: 44b636d653fd59c4ca3bd4c4cea40b90
  m_configObjects: {}
